{
  "data": {
    "naughtyNiceList": {
      "people": [
        {
          "name": "Joshua Groves",
          "deeds": {
            "naughty": {
              "__typename": "DeedList",
              "list": [
                {
                  "records": [
                    {
                      "value": 248
                    }
                  ]
                },
                {
                  "records": [
                    {
                      "value": 655
                    }
                  ]
                },
                {
                  "records": [
                    {
                      "value": 702
                    }
                  ]
                },
                {
                  "records": [
                    {
                      "value": 382
                    }
                  ]
                },
                {
                  "records": [
                    {
                      "value": 307
                    }
                  ]
                },
                {
                  "records": [
                    {
                      "value": 717
                    }
                  ]
                }
              ]
            }
          }
        },
        {
          "name": "Mark D'Arcy",
          "deeds": {
            "naughty": {
              "__typename": "DeedList",
              "list": [
                {
                  "records": [
                    {
                      "value": 179
                    }
                  ]
                },
                {
                  "records": [
                    {
                      "value": 774
                    }
                  ]
                }
              ]
            }
          }
        },
        {
          "name": "Sean Watters",
          "deeds": {
            "naughty": {
              "__typename": "DeedList",
              "list": [
                {
                  "records": [
                    {
                      "value": 123
                    }
                  ]
                },
                {
                  "records": [
                    {
                      "value": 369
                    }
                  ]
                },
                {
                  "records": [
                    {
                      "value": 168
                    }
                  ]
                },
                {
                  "records": [
                    {
                      "value": 176
                    }
                  ]
                }
              ]
            }
          }
        },
        {
          "name": "Travis Meier",
          "deeds": {
            "naughty": {
              "__typename": "DeedList",
              "list": [
                {
                  "records": [
                    {
                      "value": 601
                    }
                  ]
                },
                {
                  "records": [
                    {
                      "value": 314
                    }
                  ]
                }
              ]
            }
          }
        },
        {
          "name": "Michael Donohue",
          "deeds": {
            "naughty": {
              "__typename": "DeedList",
              "list": [
                {
                  "records": [
                    {
                      "value": 312
                    }
                  ]
                },
                {
                  "records": [
                    {
                      "value": 290
                    }
                  ]
                },
                {
                  "records": [
                    {
                      "value": 739
                    }
                  ]
                },
                {
                  "records": [
                    {
                      "value": 339
                    }
                  ]
                },
                {
                  "records": [
                    {
                      "value": 724
                    }
                  ]
                },
                {
                  "records": [
                    {
                      "value": 872
                    }
                  ]
                },
                {
                  "records": [
                    {
                      "value": 532
                    }
                  ]
                },
                {
                  "records": [
                    {
                      "value": 325
                    }
                  ]
                }
              ]
            }
          }
        },
        {
          "name": "Guillermo Amaral",
          "deeds": {
            "naughty": {
              "__typename": "DeedList",
              "list": [
                {
                  "records": [
                    {
                      "value": 821
                    }
                  ]
                }
              ]
            }
          }
        },
        {
          "name": "Francine Reid",
          "deeds": {
            "naughty": {
              "__typename": "DeedList",
              "list": [
                {
                  "records": [
                    {
                      "value": 156
                    }
                  ]
                },
                {
                  "records": [
                    {
                      "value": 164
                    }
                  ]
                },
                {
                  "records": [
                    {
                      "value": 415
                    }
                  ]
                },
                {
                  "records": [
                    {
                      "value": 61
                    }
                  ]
                },
                {
                  "records": [
                    {
                      "value": 40
                    }
                  ]
                },
                {
                  "records": [
                    {
                      "value": 173
                    }
                  ]
                },
                {
                  "records": [
                    {
                      "value": 322
                    }
                  ]
                },
                {
                  "records": [
                    {
                      "value": 357
                    }
                  ]
                },
                {
                  "records": [
                    {
                      "value": 574
                    }
                  ]
                }
              ]
            }
          }
        },
        {
          "name": "Gary Trafford",
          "deeds": {
            "naughty": {
              "__typename": "DeedList",
              "list": [
                {
                  "records": [
                    {
                      "value": 488
                    }
                  ]
                },
                {
                  "records": [
                    {
                      "value": 881
                    }
                  ]
                }
              ]
            }
          }
        },
        {
          "name": "Bjoern Bussewitz",
          "deeds": {
            "naughty": {
              "__typename": "DeedList",
              "list": [
                {
                  "records": [
                    {
                      "value": 368
                    }
                  ]
                },
                {
                  "records": [
                    {
                      "value": 393
                    }
                  ]
                },
                {
                  "records": [
                    {
                      "value": 622
                    }
                  ]
                },
                {
                  "records": [
                    {
                      "value": 5
                    }
                  ]
                },
                {
                  "records": [
                    {
                      "value": 644
                    }
                  ]
                },
                {
                  "records": [
                    {
                      "value": 632
                    }
                  ]
                },
                {
                  "records": [
                    {
                      "value": 354
                    }
                  ]
                },
                {
                  "records": [
                    {
                      "value": 233
                    }
                  ]
                },
                {
                  "records": [
                    {
                      "value": 996
                    }
                  ]
                }
              ]
            }
          }
        },
        {
          "name": "James Feek",
          "deeds": {
            "naughty": {
              "__typename": "DeedList",
              "list": [
                {
                  "records": [
                    {
                      "value": 453
                    }
                  ]
                },
                {
                  "records": [
                    {
                      "value": 752
                    }
                  ]
                },
                {
                  "records": [
                    {
                      "value": 861
                    }
                  ]
                },
                {
                  "records": [
                    {
                      "value": 790
                    }
                  ]
                }
              ]
            }
          }
        },
        {
          "name": "Peter Michie",
          "deeds": {
            "naughty": {
              "__typename": "DeedList",
              "list": [
                {
                  "records": [
                    {
                      "value": 154
                    }
                  ]
                },
                {
                  "records": [
                    {
                      "value": 783
                    }
                  ]
                },
                {
                  "records": [
                    {
                      "value": 398
                    }
                  ]
                },
                {
                  "records": [
                    {
                      "value": 224
                    }
                  ]
                },
                {
                  "records": [
                    {
                      "value": 196
                    }
                  ]
                },
                {
                  "records": [
                    {
                      "value": 509
                    }
                  ]
                },
                {
                  "records": [
                    {
                      "value": 314
                    }
                  ]
                },
                {
                  "records": [
                    {
                      "value": 430
                    }
                  ]
                },
                {
                  "records": [
                    {
                      "value": 537
                    }
                  ]
                }
              ]
            }
          }
        },
        {
          "name": "Kevin Unarce",
          "deeds": {
            "naughty": {
              "__typename": "DeedList",
              "list": [
                {
                  "records": [
                    {
                      "value": 387
                    }
                  ]
                },
                {
                  "records": [
                    {
                      "value": 453
                    }
                  ]
                },
                {
                  "records": [
                    {
                      "value": 711
                    }
                  ]
                },
                {
                  "records": [
                    {
                      "value": 928
                    }
                  ]
                },
                {
                  "records": [
                    {
                      "value": 831
                    }
                  ]
                },
                {
                  "records": [
                    {
                      "value": 826
                    }
                  ]
                },
                {
                  "records": [
                    {
                      "value": 964
                    }
                  ]
                }
              ]
            }
          }
        },
        {
          "name": "Mark McSweeny",
          "deeds": {
            "naughty": {
              "__typename": "DeedList",
              "list": [
                {
                  "records": [
                    {
                      "value": 633
                    }
                  ]
                },
                {
                  "records": [
                    {
                      "value": 578
                    }
                  ]
                },
                {
                  "records": [
                    {
                      "value": 571
                    }
                  ]
                },
                {
                  "records": [
                    {
                      "value": 375
                    }
                  ]
                },
                {
                  "records": [
                    {
                      "value": 880
                    }
                  ]
                },
                {
                  "records": [
                    {
                      "value": 320
                    }
                  ]
                },
                {
                  "records": [
                    {
                      "value": 13
                    }
                  ]
                },
                {
                  "records": [
                    {
                      "value": 637
                    }
                  ]
                }
              ]
            }
          }
        },
        {
          "name": "Predrag Stanar",
          "deeds": {
            "naughty": {
              "__typename": "DeedList",
              "list": [
                {
                  "records": [
                    {
                      "value": 442
                    }
                  ]
                },
                {
                  "records": [
                    {
                      "value": 703
                    }
                  ]
                },
                {
                  "records": [
                    {
                      "value": 16
                    }
                  ]
                },
                {
                  "records": [
                    {
                      "value": 151
                    }
                  ]
                },
                {
                  "records": [
                    {
                      "value": 497
                    }
                  ]
                },
                {
                  "records": [
                    {
                      "value": 932
                    }
                  ]
                },
                {
                  "records": [
                    {
                      "value": 13
                    }
                  ]
                },
                {
                  "records": [
                    {
                      "value": 897
                    }
                  ]
                }
              ]
            }
          }
        },
        {
          "name": "Mykola Peleshchyshyn",
          "deeds": {
            "naughty": {
              "__typename": "DeedList",
              "list": [
                {
                  "records": [
                    {
                      "value": 310
                    }
                  ]
                }
              ]
            }
          }
        },
        {
          "name": "Neil Karan",
          "deeds": {
            "naughty": {
              "__typename": "DeedList",
              "list": [
                {
                  "records": [
                    {
                      "value": 469
                    }
                  ]
                },
                {
                  "records": [
                    {
                      "value": 107
                    }
                  ]
                },
                {
                  "records": [
                    {
                      "value": 258
                    }
                  ]
                },
                {
                  "records": [
                    {
                      "value": 254
                    }
                  ]
                },
                {
                  "records": [
                    {
                      "value": 227
                    }
                  ]
                },
                {
                  "records": [
                    {
                      "value": 111
                    }
                  ]
                },
                {
                  "records": [
                    {
                      "value": 708
                    }
                  ]
                }
              ]
            }
          }
        },
        {
          "name": "Ayman Issa",
          "deeds": {
            "naughty": {
              "__typename": "DeedList",
              "list": [
                {
                  "records": [
                    {
                      "value": 680
                    }
                  ]
                }
              ]
            }
          }
        },
        {
          "name": "Bob",
          "deeds": {
            "naughty": {
              "__typename": "DeedList",
              "list": [
                {
                  "records": [
                    {
                      "value": 372
                    }
                  ]
                },
                {
                  "records": [
                    {
                      "value": 68
                    }
                  ]
                },
                {
                  "records": [
                    {
                      "value": 561
                    }
                  ]
                },
                {
                  "records": [
                    {
                      "value": 284
                    }
                  ]
                },
                {
                  "records": [
                    {
                      "value": 326
                    }
                  ]
                },
                {
                  "records": [
                    {
                      "value": 106
                    }
                  ]
                }
              ]
            }
          }
        },
        {
          "name": "Boots",
          "deeds": {
            "naughty": {
              "__typename": "DeedList",
              "list": [
                {
                  "records": [
                    {
                      "value": 915
                    }
                  ]
                },
                {
                  "records": [
                    {
                      "value": 714
                    }
                  ]
                },
                {
                  "records": [
                    {
                      "value": 461
                    }
                  ]
                },
                {
                  "records": [
                    {
                      "value": 438
                    }
                  ]
                },
                {
                  "records": [
                    {
                      "value": 974
                    }
                  ]
                }
              ]
            }
          }
        },
        {
          "name": "handsome-b-wonderful",
          "deeds": {
            "naughty": {
              "__typename": "DeedList",
              "list": [
                {
                  "records": [
                    {
                      "value": 704
                    }
                  ]
                },
                {
                  "records": [
                    {
                      "value": 726
                    }
                  ]
                },
                {
                  "records": [
                    {
                      "value": 476
                    }
                  ]
                }
              ]
            }
          }
        },
        {
          "name": "Lautaro Cozzani",
          "deeds": {
            "naughty": {
              "__typename": "DeedList",
              "list": [
                {
                  "records": [
                    {
                      "value": 368
                    }
                  ]
                },
                {
                  "records": [
                    {
                      "value": 54
                    }
                  ]
                },
                {
                  "records": [
                    {
                      "value": 21
                    }
                  ]
                },
                {
                  "records": [
                    {
                      "value": 552
                    }
                  ]
                },
                {
                  "records": [
                    {
                      "value": 613
                    }
                  ]
                },
                {
                  "records": [
                    {
                      "value": 781
                    }
                  ]
                }
              ]
            }
          }
        },
        {
          "name": "Tim Null Fuller",
          "deeds": {
            "naughty": {
              "__typename": "DeedList",
              "list": [
                {
                  "records": [
                    {
                      "value": 86
                    }
                  ]
                }
              ]
            }
          }
        },
        {
          "name": "Doctor Evil",
          "deeds": {
            "naughty": {
              "__typename": "DeedList",
              "list": [
                {
                  "records": [
                    {
                      "value": 10000
                    }
                  ]
                },
                {
                  "records": [
                    {
                      "value": 700
                    },
                    {
                      "value": 700
                    },
                    {
                      "value": 700
                    },
                    {
                      "value": 700
                    },
                    {
                      "value": 700
                    },
                    {
                      "value": 700
                    },
                    {
                      "value": 700
                    },
                    {
                      "value": 700
                    }
                  ]
                }
              ]
            }
          }
        }
      ]
    }
  }
}